MyLabJournal - Data Acquisition
…
#> [1] 1
#> [1] 2
#> [1] 3
#> [1] 4
#> [1] 5
#> [1] 6
#> [1] 7

Table

print(rose_bike_data_tbl, n=20)

#> # A tibble: 50,176 × 4
#>    Name          url                                           Description Price
#>    <chr>         <glue>                                        <chr>       <chr>
#>  1 MTB           https://www.rosebikes.com/bikes/mtb/cross-co… "         … "   …
#>  2 MTB           https://www.rosebikes.com/bikes/mtb/cross-co… "         … "   …
#>  3 MTB           https://www.rosebikes.com/bikes/mtb/cross-co… "         … "   …
#>  4 MTB           https://www.rosebikes.com/bikes/mtb/trail-/-… "         … "   …
#>  5 MTB           https://www.rosebikes.com/bikes/mtb/trail-/-… "         … "   …
#>  6 MTB           https://www.rosebikes.com/bikes/mtb/trail-/-… "         … "   …
#>  7 MTB           https://www.rosebikes.com/bikes/mtb/freeride… "         … "   …
#>  8 MTB           https://www.rosebikes.com/bikes/mtb/dirt/the… "         … "   …
#>  9 Cross Country https://www.rosebikes.com/bikes/mtb/cross-co… "         … "   …
#> 10 Cross Country https://www.rosebikes.com/bikes/mtb/cross-co… "         … "   …
#> 11 Cross Country https://www.rosebikes.com/bikes/mtb/cross-co… "         … "   …
#> 12 Cross Country https://www.rosebikes.com/bikes/mtb/trail-/-… "         … "   …
#> 13 Cross Country https://www.rosebikes.com/bikes/mtb/trail-/-… "         … "   …
#> 14 Cross Country https://www.rosebikes.com/bikes/mtb/trail-/-… "         … "   …
#> 15 Cross Country https://www.rosebikes.com/bikes/mtb/freeride… "         … "   …
#> 16 Cross Country https://www.rosebikes.com/bikes/mtb/dirt/the… "         … "   …
#> 17 COUNT SOLO    https://www.rosebikes.com/bikes/mtb/cross-co… "         … "   …
#> 18 COUNT SOLO    https://www.rosebikes.com/bikes/mtb/cross-co… "         … "   …
#> 19 COUNT SOLO    https://www.rosebikes.com/bikes/mtb/cross-co… "         … "   …
#> 20 COUNT SOLO    https://www.rosebikes.com/bikes/mtb/trail-/-… "         … "   …
#> # ℹ 50,156 more rows
…
